bidentrump_nyt_updated.knit
…
biden_bigram_sep %>%
  filter(word2 == "virus") %>%
  count(word1, word2, sort = TRUE)

## # A tibble: 45 x 3
##    word1   word2     n
##    <chr>   <chr> <int>
##  1 the     virus    84
##  2 over    virus     7
##  3 a       virus     6
##  4 and     virus     4
##  5 as      virus     4
##  6 his     virus     3
##  7 little  virus     3
##  8 says    virus     3
##  9 up      virus     3
## 10 chinese virus     2
## # ... with 35 more rows
…
biden_trigram_sep <- biden_trigram %>% 
  separate(trigram, c("word1", "word2", "word3"), sep = " ")

biden_trigram_sep %>% 
  filter(!word1 %in% stop_words$word) %>% 
  filter(!word1 %in% mystopwords$word) %>% 
  filter(!word2 %in% stop_words$word) %>% 
  filter(!word2 %in% mystopwords$word) %>% 
  filter(!word3 %in% stop_words$word) %>% 
  filter(!word3 %in% mystopwords$word) %>% 
  count(word1, word2, word3, sort = TRUE) %>%
  unite(trigram, word1, word2, word3, sep = " ")

## # A tibble: 2,320 x 2
##    trigram                             n
##    <chr>                           <int>
##  1 primary election results          115
##  2 california primary election        36
##  3 election results 2020              26
##  4 presidential primary 2020          22
##  5 texas primary election             20
##  6 monday evening briefing            17
##  7 wednesday evening briefing         16
##  8 democratic primary election        15
##  9 presidential democratic primary    15
## 10 friday evening briefing            10
## # ... with 2,310 more rows
…
