Text Mining & Sentiment Analysis
…
Accessing the Jane Austin Books

original_books <- austen_books() %>%
  group_by(book) %>%
  mutate(linenumber = row_number(),
         chapter = cumsum(str_detect(text, 
                                     regex("^chapter [\\divxlc]",
                                           ignore_case = TRUE)))) %>%
  ungroup()

original_books

## # A tibble: 73,422 × 4
##    text                    book                linenumber chapter
##    <chr>                   <fct>                    <int>   <int>
##  1 "SENSE AND SENSIBILITY" Sense & Sensibility          1       0
##  2 ""                      Sense & Sensibility          2       0
##  3 "by Jane Austen"        Sense & Sensibility          3       0
##  4 ""                      Sense & Sensibility          4       0
##  5 "(1811)"                Sense & Sensibility          5       0
##  6 ""                      Sense & Sensibility          6       0
##  7 ""                      Sense & Sensibility          7       0
##  8 ""                      Sense & Sensibility          8       0
##  9 ""                      Sense & Sensibility          9       0
## 10 "CHAPTER 1"             Sense & Sensibility         10       1
## # … with 73,412 more rows
…
We can use the tidytext dataset stop_words with an anti_join to remove common English words like “the”, “of”, and “to” which potentially not be fruitful in a sentiment analysis context.

tidy_books <- tidy_books %>%
  anti_join(stop_words)

## Joining, by = "word"

Practice

Find the most common words in all the tidy_books books as a whole. Create a visualization via ggplot in how you think best fits the data you get.

tidy_books

## # A tibble: 217,609 × 4
##    book                linenumber chapter word       
##    <fct>                    <int>   <int> <chr>      
##  1 Sense & Sensibility          1       0 sense      
##  2 Sense & Sensibility          1       0 sensibility
##  3 Sense & Sensibility          3       0 jane       
##  4 Sense & Sensibility          3       0 austen     
##  5 Sense & Sensibility          5       0 1811       
##  6 Sense & Sensibility         10       1 chapter    
##  7 Sense & Sensibility         10       1 1          
##  8 Sense & Sensibility         13       1 family     
##  9 Sense & Sensibility         13       1 dashwood   
## 10 Sense & Sensibility         13       1 settled    
## # … with 217,599 more rows
…
